Verification_labs/lab3/lab3/sim/transcript
# //  ModelSim SE-64 10.4b May 26 2015 Linux 2.6.32-642.11.1.el6.x86_64
# //
# //  Copyright 1991-2015 Mentor Graphics Corporation
# //  All Rights Reserved.
# //
# //  THIS WORK CONTAINS TRADE SECRET AND PROPRIETARY INFORMATION
# //  WHICH IS THE PROPERTY OF MENTOR GRAPHICS CORPORATION OR ITS
# //  LICENSORS AND IS SUBJECT TO LICENSE TERMS.
# //  THIS DOCUMENT CONTAINS TRADE SECRETS AND COMMERCIAL OR FINANCIAL
# //  INFORMATION THAT ARE PRIVILEGED, CONFIDENTIAL, AND EXEMPT FROM
# //  DISCLOSURE UNDER THE FREEDOM OF INFORMATION ACT, 5 U.S.C. SECTION 552.
# //  FURTHERMORE, THIS INFORMATION IS PROHIBITED FROM DISCLOSURE UNDER
# //  THE TRADE SECRETS ACT, 18 U.S.C. SECTION 1905.
# //
# do run.do
# Model Technology ModelSim SE-64 vlog 10.4b Compiler 2015.05 May 26 2015
# Start time: 13:46:46 on Mar 13,2017
# vlog -reportprogress 300 ../dut/ALU_netlist.v ../lib/gscl45nm.v 
# -- Compiling module ALU_DW01_add_0
# -- Compiling module ALU
# -- Compiling module AND2X1
# -- Compiling module AND2X2
# -- Compiling module AOI21X1
# -- Compiling module AOI22X1
# -- Compiling module BUFX2
# -- Compiling module BUFX4
# -- Compiling module CLKBUF1
# -- Compiling module CLKBUF2
# -- Compiling module CLKBUF3
# -- Compiling module DFFNEGX1
# -- Compiling module DFFPOSX1
# -- Compiling module DFFSR
# -- Compiling module FAX1
# -- Compiling module HAX1
# -- Compiling module INVX1
# -- Compiling module INVX2
# -- Compiling module INVX4
# -- Compiling module INVX8
# -- Compiling module LATCH
# -- Compiling module MUX2X1
# -- Compiling module NAND2X1
# -- Compiling module NAND3X1
# -- Compiling module NOR2X1
# -- Compiling module NOR3X1
# -- Compiling module OAI21X1
# -- Compiling module OAI22X1
# -- Compiling module OR2X1
# -- Compiling module OR2X2
# -- Compiling module TBUFX1
# -- Compiling module TBUFX2
# -- Compiling module XNOR2X1
# -- Compiling module XOR2X1
# -- Compiling UDP udp_dff
# -- Compiling UDP udp_tlat
# -- Compiling UDP udp_rslat
# -- Compiling UDP udp_mux2
# 
# Top level modules:
# 	ALU
# 	AND2X2
# 	BUFX4
# 	CLKBUF1
# 	CLKBUF2
# 	CLKBUF3
# 	DFFNEGX1
# 	DFFSR
# 	HAX1
# 	INVX2
# 	INVX4
# 	INVX8
# 	LATCH
# 	NAND2X1
# 	NOR2X1
# 	OAI22X1
# 	OR2X2
# 	TBUFX1
# 	TBUFX2
# 	XNOR2X1
# End time: 13:46:46 on Mar 13,2017, Elapsed time: 0:00:00
# Errors: 0, Warnings: 0
# Model Technology ModelSim SE-64 vlog 10.4b Compiler 2015.05 May 26 2015
# Start time: 13:46:46 on Mar 13,2017
# vlog -reportprogress 300 "+cover" -sv ../tb/interfaces.sv ../tb/sequences.sv ../tb/coverage.sv ../tb/scoreboard.sv ../tb/modules.sv ../tb/tests.sv ../tb/tb.sv 
# -- Compiling interface dut_in
# -- Compiling interface dut_out
# ** Note: (vlog-2286) Using implicit +incdir+/misc/linuxws/packages/mentor_2015/modelsim/modeltech/uvm-1.1d/../verilog_src/uvm-1.1d/src from import uvm_pkg
# -- Compiling package sequences
# -- Importing package mtiUvm.uvm_pkg (uvm-1.1d Built-in)
# -- Compiling package coverage
# -- Importing package sequences
# -- Compiling package scoreboard
# ** Warning: ../tb/scoreboard.sv(64): (vlog-2240) Treating stand-alone use of function 'convert2string' as an implicit VOID cast.
# ** Warning: ../tb/scoreboard.sv(65): (vlog-2240) Treating stand-alone use of function 'convert2string' as an implicit VOID cast.
# ** Warning: ../tb/scoreboard.sv(69): (vlog-2240) Treating stand-alone use of function 'convert2string' as an implicit VOID cast.
# ** Warning: ../tb/scoreboard.sv(70): (vlog-2240) Treating stand-alone use of function 'convert2string' as an implicit VOID cast.
# ** Warning: ../tb/scoreboard.sv(74): (vlog-2240) Treating stand-alone use of function 'convert2string' as an implicit VOID cast.
# ** Warning: ../tb/scoreboard.sv(75): (vlog-2240) Treating stand-alone use of function 'convert2string' as an implicit VOID cast.
# -- Compiling package modules_pkg
# -- Importing package coverage
# -- Importing package scoreboard
# -- Compiling package tests
# -- Importing package modules_pkg
# -- Compiling package tb_sv_unit
# -- Importing package mtiUvm.uvm_pkg (uvm-1.1d Built-in)
# -- Importing package modules_pkg
# -- Importing package sequences
# -- Importing package coverage
# -- Importing package scoreboard
# -- Importing package tests
# -- Compiling module dut
# -- Compiling module top
# 
# Top level modules:
# 	top
# End time: 13:46:47 on Mar 13,2017, Elapsed time: 0:00:01
# Errors: 0, Warnings: 6
# vsim -c top 
# Start time: 13:46:47 on Mar 13,2017
# ** Note: (vsim-3812) Design is being optimized...
# ** Warning: ../dut/ALU_netlist.v(151): (vopt-2685) [TFMPC] - Too few port connections for 'r74'.  Expected 5, found 4.
# ** Warning: ../dut/ALU_netlist.v(151): (vopt-2718) [TFMPC] - Missing connection for port 'CO'.
# ** Warning: ../tb/scoreboard.sv(64): (vopt-2240) Treating stand-alone use of function 'convert2string' as an implicit VOID cast.
# ** Warning: ../tb/scoreboard.sv(65): (vopt-2240) Treating stand-alone use of function 'convert2string' as an implicit VOID cast.
# ** Warning: ../tb/scoreboard.sv(69): (vopt-2240) Treating stand-alone use of function 'convert2string' as an implicit VOID cast.
# ** Warning: ../tb/scoreboard.sv(70): (vopt-2240) Treating stand-alone use of function 'convert2string' as an implicit VOID cast.
# ** Warning: ../tb/scoreboard.sv(74): (vopt-2240) Treating stand-alone use of function 'convert2string' as an implicit VOID cast.
# ** Warning: ../tb/scoreboard.sv(75): (vopt-2240) Treating stand-alone use of function 'convert2string' as an implicit VOID cast.
# Loading sv_std.std
# Loading mtiUvm.uvm_pkg
# Loading work.sequences(fast)
# Loading work.scoreboard(fast)
# Loading work.coverage(fast)
# Loading work.modules_pkg(fast)
# Loading work.tests(fast)
# Loading work.tb_sv_unit(fast)
# Loading work.top(fast)
# Loading work.ALU(fast)
# Loading work.DFFPOSX1(fast)
# Loading work.FAX1(fast)
# Loading work.XOR2X1(fast)
# Loading work.OR2X1(fast)
# Loading work.BUFX2(fast)
# Loading work.AND2X1(fast)
# Loading work.INVX1(fast)
# Loading work.MUX2X1(fast)
# Loading work.AOI21X1(fast)
# Loading work.NAND3X1(fast)
# Loading work.OAI21X1(fast)
# Loading work.AOI22X1(fast)
# Loading work.NOR3X1(fast)
# Loading mtiUvm.questa_uvm_pkg(fast)
# Loading work.dut_in(fast)
# Loading work.dut_out(fast)
# Loading /misc/linuxws/packages/mentor_2015/modelsim/modeltech/uvm-1.1d/linux_x86_64/uvm_dpi.so
# ----------------------------------------------------------------
# UVM-1.1d
# (C) 2007-2013 Mentor Graphics Corporation
# (C) 2007-2013 Cadence Design Systems, Inc.
# (C) 2006-2013 Synopsys, Inc.
# (C) 2011-2013 Cypress Semiconductor Corp.
# ----------------------------------------------------------------
# 
#   ***********       IMPORTANT RELEASE NOTES         ************
# 
#   You are using a version of the UVM library that has been compiled
#   with `UVM_NO_DEPRECATED undefined.
#   See http://www.eda.org/svdb/view.php?id=3313 for more details.
# 
#   You are using a version of the UVM library that has been compiled
#   with `UVM_OBJECT_MUST_HAVE_CONSTRUCTOR undefined.
#   See http://www.eda.org/svdb/view.php?id=3770 for more details.
# 
#       (Specify +UVM_NO_RELNOTES to turn off this notice)
# 
# UVM_INFO verilog_src/questa_uvm_pkg-1.2/src/questa_uvm_pkg.sv(215) @ 0: reporter [Questa UVM] QUESTA_UVM-1.2.2
# UVM_INFO verilog_src/questa_uvm_pkg-1.2/src/questa_uvm_pkg.sv(217) @ 0: reporter [Questa UVM]  questa_uvm::init(+struct)
# UVM_INFO @ 0: reporter [RNTST] Running test test1...
# UVM_INFO ../tb/scoreboard.sv(68) @ 3500: uvm_test_top.alu_env_h.alu_scoreboard_h [ERR_MSG2] COUT mismatch!!! Scoreboard result: 0 and DUT result: 1, opcode: 2, A: c5c54bd2, B: b5546716, OUT: c5c54bd2
# UVM_INFO ../tb/scoreboard.sv(73) @ 3500: uvm_test_top.alu_env_h.alu_scoreboard_h [ERR_MSG3] OUT mismatch!!! Scoreboard result: 00111010001110101011010000101101 and DUT result: 11000101110001010100101111010010, opcode: 2, A: c5c54bd2, B: b5546716, sb res: 3a3ab42d, dut res: c5c54bd2, cin: 0
# UVM_INFO ../tb/scoreboard.sv(73) @ 4500: uvm_test_top.alu_env_h.alu_scoreboard_h [ERR_MSG3] OUT mismatch!!! Scoreboard result: 01110101011110110111101011111111 and DUT result: 01110101111110110111101011111111, opcode: 3, A: 712978f5, B: 757a027f, sb res: 757b7aff, dut res: 75fb7aff, cin: 0
# UVM_INFO ../tb/scoreboard.sv(63) @ 5500: uvm_test_top.alu_env_h.alu_scoreboard_h [ERR_MSG1] VOUT mismatch!!!  Scoreboard result: 1 and DUT result: 0, opcode: 5, A: 6c7f1110, B: 507acc37, OUT: bcf9dd48, sb res: bcf9dd48, cin: 1
# UVM_INFO ../tb/scoreboard.sv(73) @ 6500: uvm_test_top.alu_env_h.alu_scoreboard_h [ERR_MSG3] OUT mismatch!!! Scoreboard result: 01110011010010000000000001000000 and DUT result: 01110011010010000000000000000000, opcode: 1, A: f7c80c74, B: 736a31cb, sb res: 73480040, dut res: 73480000, cin: 1
# UVM_INFO ../tb/scoreboard.sv(68) @ 7500: uvm_test_top.alu_env_h.alu_scoreboard_h [ERR_MSG2] COUT mismatch!!! Scoreboard result: 0 and DUT result: 1, opcode: 2, A: 6777902d, B: af7f4ba9, OUT: 6777902d
# UVM_INFO ../tb/scoreboard.sv(73) @ 7500: uvm_test_top.alu_env_h.alu_scoreboard_h [ERR_MSG3] OUT mismatch!!! Scoreboard result: 10011000100010000110111111010010 and DUT result: 01100111011101111001000000101101, opcode: 2, A: 6777902d, B: af7f4ba9, sb res: 98886fd2, dut res: 6777902d, cin: 1
# UVM_INFO ../tb/scoreboard.sv(68) @ 8500: uvm_test_top.alu_env_h.alu_scoreboard_h [ERR_MSG2] COUT mismatch!!! Scoreboard result: 0 and DUT result: 1, opcode: 2, A: eff55a1b, B: f6cd5298, OUT: eff55a1b
# UVM_INFO ../tb/scoreboard.sv(73) @ 8500: uvm_test_top.alu_env_h.alu_scoreboard_h [ERR_MSG3] OUT mismatch!!! Scoreboard result: 00010000000010101010010111100100 and DUT result: 11101111111101010101101000011011, opcode: 2, A: eff55a1b, B: f6cd5298, sb res: 100aa5e4, dut res: eff55a1b, cin: 1
# UVM_INFO ../tb/scoreboard.sv(73) @ 12500: uvm_test_top.alu_env_h.alu_scoreboard_h [ERR_MSG3] OUT mismatch!!! Scoreboard result: 10001100000000000010001100001000 and DUT result: 10001100000000000010001100000000, opcode: 1, A: dc06e788, B: af713b68, sb res: 8c002308, dut res: 8c002300, cin: 0
# UVM_INFO ../tb/scoreboard.sv(68) @ 13500: uvm_test_top.alu_env_h.alu_scoreboard_h [ERR_MSG2] COUT mismatch!!! Scoreboard result: 0 and DUT result: 1, opcode: 2, A: 61a21738, B: 7ad1594d, OUT: 61a21738
# UVM_INFO ../tb/scoreboard.sv(73) @ 13500: uvm_test_top.alu_env_h.alu_scoreboard_h [ERR_MSG3] OUT mismatch!!! Scoreboard result: 10011110010111011110100011000111 and DUT result: 01100001101000100001011100111000, opcode: 2, A: 61a21738, B: 7ad1594d, sb res: 9e5de8c7, dut res: 61a21738, cin: 0
# UVM_INFO ../tb/scoreboard.sv(68) @ 18500: uvm_test_top.alu_env_h.alu_scoreboard_h [ERR_MSG2] COUT mismatch!!! Scoreboard result: 0 and DUT result: 1, opcode: 2, A: f4ef2297, B: d738c271, OUT: f4ef2297
# UVM_INFO ../tb/scoreboard.sv(73) @ 18500: uvm_test_top.alu_env_h.alu_scoreboard_h [ERR_MSG3] OUT mismatch!!! Scoreboard result: 00001011000100001101110101101000 and DUT result: 11110100111011110010001010010111, opcode: 2, A: f4ef2297, B: d738c271, sb res: 0b10dd68, dut res: f4ef2297, cin: 1
# UVM_INFO ../tb/scoreboard.sv(73) @ 19500: uvm_test_top.alu_env_h.alu_scoreboard_h [ERR_MSG3] OUT mismatch!!! Scoreboard result: 00000010000000000000110101000010 and DUT result: 00000010000000000000110100000000, opcode: 1, A: 0e420d72, B: 22902fca, sb res: 02000d42, dut res: 02000d00, cin: 0
# UVM_INFO ../tb/scoreboard.sv(73) @ 20500: uvm_test_top.alu_env_h.alu_scoreboard_h [ERR_MSG3] OUT mismatch!!! Scoreboard result: 10000100000101010001000111100000 and DUT result: 10000100000101010001000100000000, opcode: 1, A: cedf19f8, B: 941553e3, sb res: 841511e0, dut res: 84151100, cin: 1
# UVM_INFO ../tb/scoreboard.sv(63) @ 23500: uvm_test_top.alu_env_h.alu_scoreboard_h [ERR_MSG1] VOUT mismatch!!!  Scoreboard result: 1 and DUT result: 0, opcode: 5, A: 80ff598b, B: b8c6e845, OUT: 39c641d0, sb res: 39c641d0, cin: 0
# UVM_INFO ../tb/scoreboard.sv(73) @ 24500: uvm_test_top.alu_env_h.alu_scoreboard_h [ERR_MSG3] OUT mismatch!!! Scoreboard result: 10010010001000100110010000011000 and DUT result: 10010010001000100110010000000000, opcode: 1, A: 96226578, B: 9b626698, sb res: 92226418, dut res: 92226400, cin: 0
# UVM_INFO ../tb/scoreboard.sv(73) @ 26500: uvm_test_top.alu_env_h.alu_scoreboard_h [ERR_MSG3] OUT mismatch!!! Scoreboard result: 01111000000000000011010000010010 and DUT result: 01111000000000000011010000000000, opcode: 1, A: 7842fc96, B: 7991377a, sb res: 78003412, dut res: 78003400, cin: 0
# UVM_INFO ../tb/scoreboard.sv(68) @ 27500: uvm_test_top.alu_env_h.alu_scoreboard_h [ERR_MSG2] COUT mismatch!!! Scoreboard result: 0 and DUT result: 1, opcode: 2, A: e6d6034e, B: 0a225f8f, OUT: e6d6034e
# UVM_INFO ../tb/scoreboard.sv(73) @ 27500: uvm_test_top.alu_env_h.alu_scoreboard_h [ERR_MSG3] OUT mismatch!!! Scoreboard result: 00011001001010011111110010110001 and DUT result: 11100110110101100000001101001110, opcode: 2, A: e6d6034e, B: 0a225f8f, sb res: 1929fcb1, dut res: e6d6034e, cin: 1
# UVM_INFO ../tb/scoreboard.sv(63) @ 32500: uvm_test_top.alu_env_h.alu_scoreboard_h [ERR_MSG1] VOUT mismatch!!!  Scoreboard result: 1 and DUT result: 0, opcode: 5, A: af31d60b, B: ca86e0e0, OUT: 79b8b6ec, sb res: 79b8b6ec, cin: 1
# UVM_INFO ../tb/scoreboard.sv(68) @ 33500: uvm_test_top.alu_env_h.alu_scoreboard_h [ERR_MSG2] COUT mismatch!!! Scoreboard result: 0 and DUT result: 1, opcode: 2, A: 08a818c6, B: f42fbbbd, OUT: 08a818c6
# UVM_INFO ../tb/scoreboard.sv(73) @ 33500: uvm_test_top.alu_env_h.alu_scoreboard_h [ERR_MSG3] OUT mismatch!!! Scoreboard result: 11110111010101111110011100111001 and DUT result: 00001000101010000001100011000110, opcode: 2, A: 08a818c6, B: f42fbbbd, sb res: f757e739, dut res: 08a818c6, cin: 1
# UVM_INFO ../tb/scoreboard.sv(68) @ 34500: uvm_test_top.alu_env_h.alu_scoreboard_h [ERR_MSG2] COUT mismatch!!! Scoreboard result: 0 and DUT result: 1, opcode: 2, A: 16f98cfd, B: d2062b2c, OUT: 16f98cfd
# UVM_INFO ../tb/scoreboard.sv(73) @ 34500: uvm_test_top.alu_env_h.alu_scoreboard_h [ERR_MSG3] OUT mismatch!!! Scoreboard result: 11101001000001100111001100000010 and DUT result: 00010110111110011000110011111101, opcode: 2, A: 16f98cfd, B: d2062b2c, sb res: e9067302, dut res: 16f98cfd, cin: 0
# UVM_INFO ../tb/scoreboard.sv(63) @ 35500: uvm_test_top.alu_env_h.alu_scoreboard_h [ERR_MSG1] VOUT mismatch!!!  Scoreboard result: 1 and DUT result: 0, opcode: 5, A: 7915e439, B: 79bf88ee, OUT: f2d56d27, sb res: f2d56d27, cin: 0
# UVM_INFO ../tb/scoreboard.sv(63) @ 37500: uvm_test_top.alu_env_h.alu_scoreboard_h [ERR_MSG1] VOUT mismatch!!!  Scoreboard result: 1 and DUT result: 0, opcode: 6, A: 658f5df1, B: ce269cd6, OUT: 9768c11b, sb res: 9768c11b, cin: 1
# UVM_INFO ../tb/scoreboard.sv(73) @ 38500: uvm_test_top.alu_env_h.alu_scoreboard_h [ERR_MSG3] OUT mismatch!!! Scoreboard result: 01110100000010000110000000010000 and DUT result: 01110100000010000110000000000000, opcode: 1, A: f489fe98, B: 765e6171, sb res: 74086010, dut res: 74086000, cin: 1
# UVM_INFO ../tb/scoreboard.sv(63) @ 41500: uvm_test_top.alu_env_h.alu_scoreboard_h [ERR_MSG1] VOUT mismatch!!!  Scoreboard result: 1 and DUT result: 0, opcode: 5, A: 43266f1b, B: 46ad2005, OUT: 89d38f21, sb res: 89d38f21, cin: 1
# UVM_INFO ../tb/scoreboard.sv(73) @ 43500: uvm_test_top.alu_env_h.alu_scoreboard_h [ERR_MSG3] OUT mismatch!!! Scoreboard result: 01000100100111000000001010100001 and DUT result: 01000100100111000000001000000000, opcode: 1, A: 4dbc0aab, B: c4ddc7e1, sb res: 449c02a1, dut res: 449c0200, cin: 0
# UVM_INFO ../tb/scoreboard.sv(63) @ 44500: uvm_test_top.alu_env_h.alu_scoreboard_h [ERR_MSG1] VOUT mismatch!!!  Scoreboard result: 1 and DUT result: 0, opcode: 6, A: 4035a427, B: 9619d196, OUT: aa1bd291, sb res: aa1bd291, cin: 1
# UVM_INFO ../tb/scoreboard.sv(68) @ 45500: uvm_test_top.alu_env_h.alu_scoreboard_h [ERR_MSG2] COUT mismatch!!! Scoreboard result: 0 and DUT result: 1, opcode: 2, A: 7f3570db, B: 6b65ea51, OUT: 7f3570db
# UVM_INFO ../tb/scoreboard.sv(73) @ 45500: uvm_test_top.alu_env_h.alu_scoreboard_h [ERR_MSG3] OUT mismatch!!! Scoreboard result: 10000000110010101000111100100100 and DUT result: 01111111001101010111000011011011, opcode: 2, A: 7f3570db, B: 6b65ea51, sb res: 80ca8f24, dut res: 7f3570db, cin: 0
# UVM_INFO ../tb/scoreboard.sv(73) @ 47500: uvm_test_top.alu_env_h.alu_scoreboard_h [ERR_MSG3] OUT mismatch!!! Scoreboard result: 11000000100000000001000010000000 and DUT result: 11000000100000000001000000000000, opcode: 1, A: c2e810d0, B: d0921686, sb res: c0801080, dut res: c0801000, cin: 0
# UVM_INFO ../tb/scoreboard.sv(68) @ 56500: uvm_test_top.alu_env_h.alu_scoreboard_h [ERR_MSG2] COUT mismatch!!! Scoreboard result: 0 and DUT result: 1, opcode: 2, A: 43a9bcbd, B: fe660204, OUT: 43a9bcbd
# UVM_INFO ../tb/scoreboard.sv(73) @ 56500: uvm_test_top.alu_env_h.alu_scoreboard_h [ERR_MSG3] OUT mismatch!!! Scoreboard result: 10111100010101100100001101000010 and DUT result: 01000011101010011011110010111101, opcode: 2, A: 43a9bcbd, B: fe660204, sb res: bc564342, dut res: 43a9bcbd, cin: 1
# UVM_INFO ../tb/scoreboard.sv(68) @ 62500: uvm_test_top.alu_env_h.alu_scoreboard_h [ERR_MSG2] COUT mismatch!!! Scoreboard result: 0 and DUT result: 1, opcode: 2, A: 7c633801, B: aad58d61, OUT: 7c633801
# UVM_INFO ../tb/scoreboard.sv(73) @ 62500: uvm_test_top.alu_env_h.alu_scoreboard_h [ERR_MSG3] OUT mismatch!!! Scoreboard result: 10000011100111001100011111111110 and DUT result: 01111100011000110011100000000001, opcode: 2, A: 7c633801, B: aad58d61, sb res: 839cc7fe, dut res: 7c633801, cin: 0
# UVM_INFO ../tb/scoreboard.sv(68) @ 63500: uvm_test_top.alu_env_h.alu_scoreboard_h [ERR_MSG2] COUT mismatch!!! Scoreboard result: 0 and DUT result: 1, opcode: 2, A: 38600a7a, B: 7443e52e, OUT: 38600a7a
# UVM_INFO ../tb/scoreboard.sv(73) @ 63500: uvm_test_top.alu_env_h.alu_scoreboard_h [ERR_MSG3] OUT mismatch!!! Scoreboard result: 11000111100111111111010110000101 and DUT result: 00111000011000000000101001111010, opcode: 2, A: 38600a7a, B: 7443e52e, sb res: c79ff585, dut res: 38600a7a, cin: 0
# UVM_INFO ../tb/scoreboard.sv(73) @ 64500: uvm_test_top.alu_env_h.alu_scoreboard_h [ERR_MSG3] OUT mismatch!!! Scoreboard result: 00000100000000000011000001001000 and DUT result: 00000100000000000011000000000000, opcode: 1, A: 25407a4a, B: 9c893179, sb res: 04003048, dut res: 04003000, cin: 0
# UVM_INFO ../tb/scoreboard.sv(73) @ 67500: uvm_test_top.alu_env_h.alu_scoreboard_h [ERR_MSG3] OUT mismatch!!! Scoreboard result: 10001000100100000000010000001000 and DUT result: 10001000100100000000010000000000, opcode: 1, A: e9d1071b, B: 98961c68, sb res: 88900408, dut res: 88900400, cin: 1
# UVM_INFO ../tb/scoreboard.sv(68) @ 68500: uvm_test_top.alu_env_h.alu_scoreboard_h [ERR_MSG2] COUT mismatch!!! Scoreboard result: 0 and DUT result: 1, opcode: 2, A: 91945968, B: acdea977, OUT: 91945968
# UVM_INFO ../tb/scoreboard.sv(73) @ 68500: uvm_test_top.alu_env_h.alu_scoreboard_h [ERR_MSG3] OUT mismatch!!! Scoreboard result: 01101110011010111010011010010111 and DUT result: 10010001100101000101100101101000, opcode: 2, A: 91945968, B: acdea977, sb res: 6e6ba697, dut res: 91945968, cin: 1
# UVM_INFO ../tb/scoreboard.sv(73) @ 69500: uvm_test_top.alu_env_h.alu_scoreboard_h [ERR_MSG3] OUT mismatch!!! Scoreboard result: 00000000000100100101001110011101 and DUT result: 00000000000100100101001100000000, opcode: 1, A: 2d96fbbd, B: 403253dd, sb res: 0012539d, dut res: 00125300, cin: 0
# UVM_INFO ../tb/scoreboard.sv(68) @ 81500: uvm_test_top.alu_env_h.alu_scoreboard_h [ERR_MSG2] COUT mismatch!!! Scoreboard result: 0 and DUT result: 1, opcode: 2, A: ec465803, B: 27146e94, OUT: ec465803
# UVM_INFO ../tb/scoreboard.sv(73) @ 81500: uvm_test_top.alu_env_h.alu_scoreboard_h [ERR_MSG3] OUT mismatch!!! Scoreboard result: 00010011101110011010011111111100 and DUT result: 11101100010001100101100000000011, opcode: 2, A: ec465803, B: 27146e94, sb res: 13b9a7fc, dut res: ec465803, cin: 0
# UVM_INFO ../tb/scoreboard.sv(63) @ 85500: uvm_test_top.alu_env_h.alu_scoreboard_h [ERR_MSG1] VOUT mismatch!!!  Scoreboard result: 1 and DUT result: 0, opcode: 6, A: 8f7ebc4e, B: 2830c45b, OUT: 674df7f3, sb res: 674df7f3, cin: 1
# UVM_INFO ../tb/scoreboard.sv(73) @ 87500: uvm_test_top.alu_env_h.alu_scoreboard_h [ERR_MSG3] OUT mismatch!!! Scoreboard result: 11110000010001001000000000001000 and DUT result: 11110000010001001000000000000000, opcode: 1, A: f6468708, B: f14cb859, sb res: f0448008, dut res: f0448000, cin: 1
# UVM_INFO ../tb/scoreboard.sv(73) @ 88500: uvm_test_top.alu_env_h.alu_scoreboard_h [ERR_MSG3] OUT mismatch!!! Scoreboard result: 10100011110001010000010000001001 and DUT result: 10100011110001010000010000000000, opcode: 1, A: a7f52ccd, B: e3c5c419, sb res: a3c50409, dut res: a3c50400, cin: 1
# UVM_INFO ../tb/scoreboard.sv(63) @ 89500: uvm_test_top.alu_env_h.alu_scoreboard_h [ERR_MSG1] VOUT mismatch!!!  Scoreboard result: 1 and DUT result: 0, opcode: 6, A: b40c6794, B: 352fe83c, OUT: 7edc7f58, sb res: 7edc7f58, cin: 1
# UVM_INFO ../tb/scoreboard.sv(63) @ 92500: uvm_test_top.alu_env_h.alu_scoreboard_h [ERR_MSG1] VOUT mismatch!!!  Scoreboard result: 0 and DUT result: 1, opcode: 6, A: d96b34c2, B: 3c9e599a, OUT: 9cccdb28, sb res: 9cccdb28, cin: 1
# UVM_INFO ../tb/scoreboard.sv(73) @ 93500: uvm_test_top.alu_env_h.alu_scoreboard_h [ERR_MSG3] OUT mismatch!!! Scoreboard result: 10001010001000010001100100000100 and DUT result: 10001010001000010001100100000000, opcode: 1, A: 8b2f3944, B: dab15d8e, sb res: 8a211904, dut res: 8a211900, cin: 1
# UVM_INFO ../tb/scoreboard.sv(63) @ 94500: uvm_test_top.alu_env_h.alu_scoreboard_h [ERR_MSG1] VOUT mismatch!!!  Scoreboard result: 1 and DUT result: 0, opcode: 5, A: 94afef69, B: e6f81f6b, OUT: 7ba80ed4, sb res: 7ba80ed4, cin: 0
# UVM_INFO ../tb/scoreboard.sv(73) @ 97500: uvm_test_top.alu_env_h.alu_scoreboard_h [ERR_MSG3] OUT mismatch!!! Scoreboard result: 01000111010100000000010100100100 and DUT result: 01000111010100000000010100000000, opcode: 1, A: d7d027ac, B: 677b9d64, sb res: 47500524, dut res: 47500500, cin: 0
# UVM_INFO verilog_src/uvm-1.1d/src/base/uvm_objection.svh(1268) @ 99500: reporter [TEST_DONE] 'run' phase is ready to proceed to the 'extract' phase
# 
# --- UVM Report Summary ---
# 
# ** Report counts by severity
# UVM_INFO :   60
# UVM_WARNING :    0
# UVM_ERROR :    0
# UVM_FATAL :    0
# ** Report counts by id
# [ERR_MSG1]    11
# [ERR_MSG2]    14
# [ERR_MSG3]    31
# [Questa UVM]     2
# [RNTST]     1
# [TEST_DONE]     1
# ** Note: $finish    : /misc/linuxws/packages/mentor_2015/modelsim/modeltech/linux_x86_64/../verilog_src/uvm-1.1d/src/base/uvm_root.svh(430)
#    Time: 995 ns  Iteration: 70  Instance: /top
# 1
# Break in Task uvm_pkg/uvm_root::run_test at /misc/linuxws/packages/mentor_2015/modelsim/modeltech/linux_x86_64/../verilog_src/uvm-1.1d/src/base/uvm_root.svh line 430
# End time: 13:47:17 on Mar 13,2017, Elapsed time: 0:00:30
# Errors: 0, Warnings: 8
